<?xml version="1.0" encoding="utf-8"?>
<!-- Generator: Adobe Illustrator 17.1.0, SVG Export Plug-In . SVG Version: 6.00 Build 0)  -->
<!DOCTYPE svg PUBLIC "-//W3C//DTD SVG 1.1//EN" "http://www.w3.org/Graphics/SVG/1.1/DTD/svg11.dtd">
<svg version="1.1" id="Layer_1" xmlns="http://www.w3.org/2000/svg" xmlns:xlink="http://www.w3.org/1999/xlink" x="0px" y="0px"
	 viewBox="0 0 2500 840" enable-background="new 0 0 2500 840" xml:space="preserve">
<rect id="XMLID_1_" x="-1" fill="#D3E9DD" width="2500" height="840"/>
<g opacity="0.2">
	<g>
		<path fill="#B3C8C5" d="M56.08,140.002c13.682-0.996,15.131-3.151,15.131-26.719V59.518c0-23.396-1.449-25.72-15.131-26.715
			v-1.659h56.018c20.282,0,35.091,5.31,46.359,16.594c9.98,10.124,15.292,23.728,15.292,39.163
			c0,31.529-23.502,54.761-55.374,54.761H56.08V140.002z M102.761,117.602c0,19.082,1.771,22.233,11.912,22.233
			c18.351,0,25.272-14.932,25.272-53.598c0-21.737-2.415-34.349-8.048-43.313c-4.507-7.134-11.59-9.957-24.789-9.957h-4.346V117.602
			z"/>
		<path fill="#B3C8C5" d="M222.035,84.078c8.853-0.664,14.97-2.984,20.121-7.466c5.312-4.315,7.727-8.961,8.853-16.926h1.61v51.111
			h-1.61c-1.771-7.633-4.99-13.275-10.141-18.09c-5.151-4.646-9.497-6.138-18.833-6.802v39.163c0,11.448,2.093,14.767,9.497,14.767
			c20.443,0,41.854-19.082,50.706-45.301h1.61l-7.242,47.128H175.514v-1.659c13.521-0.996,14.97-3.151,14.97-26.719V59.518
			c0-23.396-1.449-25.72-15.131-26.715v-1.659h94.972l6.439,38.003h-1.61c-3.541-8.465-5.473-11.619-10.624-17.922
			c-3.379-4.15-6.761-7.302-10.302-9.792c-7.727-5.642-16.902-8.465-27.526-8.465h-4.668V84.078z"/>
		<path fill="#B3C8C5" d="M382.201,141.662h-98.195v-1.659c13.521-0.996,14.972-3.151,14.972-26.719V59.518
			c0-23.396-1.45-25.72-15.131-26.715v-1.659h61.812v1.659c-13.843,0.996-15.131,3.319-15.131,26.715v61.403
			c0,15.595,2.094,18.914,11.752,18.914c8.852,0,15.934-2.819,23.824-9.457c4.826-4.147,9.174-8.961,12.715-14.271
			c5.473-7.965,7.564-12.444,11.427-24.064h1.613L382.201,141.662z"/>
		<path fill="#B3C8C5" d="M451.574,141.662h-61.653v-1.659c13.521-0.996,14.972-3.319,14.972-26.719V59.518
			c0-23.396-1.45-25.72-15.131-26.715v-1.659h61.812v1.659c-13.843,0.996-15.131,3.319-15.131,26.715v53.766
			c0,23.4,1.288,25.723,15.131,26.719V141.662z"/>
		<path fill="#B3C8C5" d="M549.603,74.456h-1.613c-2.735-9.461-4.345-12.947-9.014-20.912c-3.057-5.143-6.598-9.789-10.302-13.604
			c-5.47-5.646-11.909-8.797-18.188-8.797c-15.453,0-23.664,19.082-23.664,55.757c0,34.848,9.983,54.761,27.527,54.761
			c13.843,0,28.49-19.085,35.091-45.636h1.61l-1.447,47.128h-1.613c-0.159-2.156-1.288-3.151-3.538-3.151
			c-0.969,0-2.094,0-3.382,0.332l-4.185,0.828l-3.863,0.5l-4.507,0.828c-4.023,0.664-10.946,1.328-15.131,1.328
			c-33.963,0-60.362-25.056-60.362-57.748c0-31.861,25.755-57.249,58.108-57.249c6.117,0,13.521,1.163,21.733,3.155
			c4.826,1.16,6.598,1.492,8.689,1.492c2.257,0,3.219-0.828,3.863-3.319h1.613L549.603,74.456z"/>
		<path fill="#B3C8C5" d="M614.147,141.662h-61.65v-1.659c13.521-0.996,14.969-3.319,14.969-26.719V59.518
			c0-23.396-1.447-25.72-15.131-26.715v-1.659h61.812v1.659c-13.843,0.996-15.131,3.319-15.131,26.715v53.766
			c0,23.4,1.288,25.723,15.131,26.719V141.662z"/>
		<path fill="#B3C8C5" d="M674.191,143.817c-32.519,0-58.434-25.552-58.434-57.413s25.914-57.584,58.434-57.584
			c32.353,0,58.43,25.723,58.43,57.584S706.544,143.817,674.191,143.817z M692.379,44.251c-3.06-8.13-9.98-13.108-18.188-13.108
			c-8.211,0-15.135,4.978-18.191,13.108c-3.541,9.628-5.473,23.896-5.473,42.153c0,18.25,1.932,32.525,5.473,42.146
			c3.057,8.301,9.98,13.111,18.191,13.111c8.208,0,14.969-4.811,18.188-13.111c3.541-9.293,5.473-23.728,5.473-42.146
			C697.852,68.147,695.92,53.879,692.379,44.251z"/>
		<path fill="#B3C8C5" d="M858.008,32.803c-9.174,1.991-14.484,8.297-17.385,21.241c-2.413,10.289-3.379,21.241-3.379,37.171v12.776
			c0,13.775-1.772,20.912-6.598,27.051c-2.738,3.155-6.12,5.974-9.983,7.965c-6.439,3.319-14.165,4.811-24.627,4.811
			c-15.294,0-27.528-2.984-36.057-9.125c-8.855-6.142-11.431-13.443-11.431-31.197V59.518c0-23.396-1.288-25.72-14.969-26.715
			v-1.659h60.525v1.659c-12.718,0.996-13.843,3.319-13.843,26.715v38.667c0,17.59,0.807,24.064,3.701,29.206
			c3.704,6.805,12.396,10.952,22.536,10.952c12.559,0,21.733-5.146,25.755-14.271c2.257-5.478,2.901-9.46,2.901-20.081V88.724
			c0-20.741-1.932-35.344-5.636-44.637c-2.576-6.138-5.31-8.629-12.393-11.284v-1.659h40.883V32.803z"/>
		<path fill="#B3C8C5" d="M938.652,71.634c-8.211-25.391-22.695-40.49-38.633-40.49c-10.143,0-17.063,6.306-17.063,15.931
			c0,4.814,2.094,9.625,5.632,12.444c3.704,2.99,11.43,7.137,19.801,10.456l15.131,5.81c18.029,7.134,26.399,17.09,26.399,31.526
			c0,20.745-17.222,36.508-39.921,36.508c-8.049,0-20.926-1.824-34.448-4.811c-4.829-0.996-6.279-1.328-7.886-1.328
			c-3.382,0-4.67,0.996-5.476,3.983h-1.606l-1.45-51.111h1.61c2.897,10.289,4.666,14.104,11.43,24.395
			c4.345,6.47,9.014,12.276,14.003,17.09c6.761,6.638,13.843,9.625,22.698,9.625c10.946,0,18.188-6.638,18.188-16.759
			c0-9.628-6.598-16.266-22.695-22.736l-15.778-6.306c-20.604-8.13-29.293-17.422-29.293-30.866
			c0-20.409,18.188-36.176,41.852-36.176c5.632,0,11.265,0.828,19.316,2.655l5.151,1.328c3.379,0.664,5.632,0.996,7.242,0.996
			c2.416,0,3.379-0.831,3.863-3.651h1.61l1.932,41.486H938.652z"/>
	</g>
	<g>
		<path fill="#B3C8C5" d="M219.963,197.934c-12.084,2.585-19.081,10.766-22.897,27.557c-3.181,13.349-4.453,27.557-4.453,48.226
			v16.576c0,17.869-2.332,27.128-8.691,35.093c-3.605,4.09-8.056,7.75-13.146,10.333c-8.479,4.306-18.656,6.244-32.437,6.244
			c-20.141,0-36.253-3.875-47.49-11.84c-11.66-7.967-15.053-17.439-15.053-40.475v-57.052c0-30.356-1.695-33.368-19.716-34.662
			v-2.152h79.715v2.152c-16.748,1.293-18.232,4.306-18.232,34.662v50.163c0,22.82,1.06,31.216,4.876,37.89
			c4.876,8.828,16.325,14.21,29.681,14.21c16.537,0,28.622-6.674,33.922-18.514c2.968-7.105,3.816-12.273,3.816-26.051v-19.805
			c0-26.912-2.544-45.857-7.419-57.913c-3.393-7.965-6.997-11.195-16.325-14.641v-2.152h53.85V197.934z"/>
		<path fill="#B3C8C5" d="M364.13,283.19v-32.078c0-23.466-4.453-39.183-13.569-47.364c-3.605-3.444-7.209-4.735-15.053-5.813
			v-2.152h62.755v2.152c-12.721,1.293-18.446,5.384-23.746,16.577c-5.512,12.273-7.419,24.113-7.419,45.641v86.116L255.157,216.881
			v61.356c0,22.39,2.332,35.738,7.844,44.996c5.512,9.257,11.237,12.701,23.746,13.778v2.152h-66.996v-2.152
			c12.934-2.154,20.353-7.32,25.653-17.224c5.09-9.904,6.784-21.313,6.784-45.426l0.212-38.968c0-20.452-2.968-26.91-14.841-33.155
			c-6.147-3.228-9.54-4.09-18.021-4.306v-2.152h69.115L364.13,283.19z"/>
		<path fill="#B3C8C5" d="M483.494,339.164h-81.2v-2.152c17.809-1.293,19.718-4.306,19.718-34.662v-69.754
			c0-30.356-1.909-33.368-19.93-34.662v-2.152h81.412v2.152c-18.232,1.293-19.928,4.306-19.928,34.662v69.754
			c0,30.356,1.697,33.368,19.928,34.662V339.164z"/>
		<path fill="#B3C8C5" d="M577.204,350.359c21.413,8.826,26.925,10.333,36.466,10.333c11.66,0,18.021-4.52,22.472-16.146h2.121
			c-2.544,15.501-6.149,24.758-12.721,32.723c-7.209,8.828-17.172,13.563-28.409,13.563c-9.116,0-17.809-3.013-26.29-9.041
			c-6.784-4.737-10.6-8.828-18.02-18.516c-15.477-20.021-17.809-22.389-22.686-22.389c-4.239,0-7.419,3.444-7.419,8.181
			c0.212,0.429,0.212,0.429,0.212,0.861l0.212,2.368c0.211,0.862,0.211,1.723,0.211,2.585c0,6.889-4.239,11.409-10.6,11.409
			c-5.3,0-9.541-4.09-9.541-9.472c0-9.904,13.569-18.084,29.258-18.084c3.179,0,5.088,0.216,10.6,0.862
			c-35.618-9.904-57.668-37.676-57.455-72.122c0-41.335,34.134-74.705,76.961-74.705c42.613,0,76.959,33.37,76.959,74.705
			c0,41.551-34.346,74.49-77.171,74.49c-4.24,0-6.572-0.216-12.297-1.076C558.335,343.039,565.755,345.622,577.204,350.359z
			 M586.532,212.79c-4.028-10.55-13.144-17.008-23.957-17.008s-19.93,6.458-23.958,17.008c-4.663,12.487-7.209,31.001-7.209,54.683
			s2.546,42.196,7.209,54.683c4.028,10.766,13.146,17.008,23.958,17.008s19.716-6.243,23.957-17.008
			c4.663-12.056,7.209-30.785,7.209-54.683C593.741,243.791,591.195,225.277,586.532,212.79z"/>
		<path fill="#B3C8C5" d="M804.692,197.934c-12.086,2.585-19.081,10.766-22.899,27.557c-3.181,13.349-4.451,27.557-4.451,48.226
			v16.576c0,17.869-2.332,27.128-8.693,35.093c-3.605,4.09-8.056,7.75-13.144,10.333c-8.481,4.306-18.656,6.244-32.437,6.244
			c-20.142,0-36.255-3.875-47.492-11.84c-11.66-7.967-15.053-17.439-15.053-40.475v-57.052c0-30.356-1.695-33.368-19.716-34.662
			v-2.152h79.717v2.152c-16.749,1.293-18.234,4.306-18.234,34.662v50.163c0,22.82,1.06,31.216,4.876,37.89
			c4.877,8.828,16.327,14.21,29.683,14.21c16.537,0,28.62-6.674,33.92-18.514c2.968-7.105,3.818-12.273,3.818-26.051v-19.805
			c0-26.912-2.544-45.857-7.423-57.913c-3.39-7.965-6.995-11.195-16.325-14.641v-2.152h53.853V197.934z"/>
		<path fill="#B3C8C5" d="M868.508,264.459c11.658-0.861,19.714-3.875,26.5-9.688c6.995-5.598,10.176-11.625,11.658-21.959h2.123
			v66.309h-2.123c-2.332-9.904-6.57-17.222-13.356-23.466c-6.783-6.029-12.507-7.965-24.802-8.828v50.81
			c0,14.855,2.756,19.16,12.507,19.16c26.925,0,55.124-24.758,66.782-58.775h2.123l-9.542,61.143H807.236v-2.152
			c17.811-1.293,19.718-4.09,19.718-34.662v-69.754c0-30.356-1.907-33.368-19.93-34.662v-2.152H932.11l8.481,49.301h-2.119
			c-4.667-10.98-7.211-15.07-13.993-23.251c-4.451-5.382-8.905-9.472-13.569-12.702c-10.176-7.319-22.262-10.98-36.255-10.98h-6.146
			V264.459z"/>
	</g>
	<g>
		<path fill="#B3C8C5" d="M124.82,475.449c13.511-0.714,23.229-4.267,30.577-10.904c5.926-5.449,9.481-12.086,11.852-23.464h2.37
			v72.059h-2.37c-3.081-11.378-6.637-17.545-14.696-24.417c-8.533-7.585-15.881-10.43-27.733-10.664v36.738
			c0,19.671,1.422,26.308,6.4,31.289c4.978,4.98,9.481,6.398,22.518,6.637v2.37H56.317v-2.37
			c19.911-1.422,22.044-4.501,22.044-38.165v-76.799c0-33.419-2.133-36.738-22.281-38.16v-2.37h137.006l9.955,58.785h-2.37
			c-5.452-14.222-8.296-19.437-14.696-27.736c-4.03-4.975-8.77-9.716-14.222-13.743c-12.563-9.481-26.785-14.701-40.059-14.701
			h-6.874V475.449z"/>
		<path fill="#B3C8C5" d="M384.844,399.598c-13.513,2.844-21.333,11.852-25.6,30.34c-3.556,14.696-4.978,30.34-4.978,53.096v18.249
			c0,19.676-2.607,29.871-9.718,38.639c-4.03,4.506-9.007,8.533-14.696,11.378c-9.481,4.741-20.859,6.872-36.266,6.872
			c-22.518,0-40.533-4.262-53.096-13.034c-13.037-8.773-16.829-19.202-16.829-44.563v-62.817c0-33.419-1.896-36.738-22.044-38.16
			v-2.37h89.125v2.37c-18.726,1.422-20.385,4.741-20.385,38.16v55.232c0,25.126,1.185,34.372,5.452,41.718
			c5.452,9.721,18.252,15.644,33.185,15.644c18.489,0,32-7.351,37.926-20.385c3.318-7.825,4.267-13.513,4.267-28.684v-21.807
			c0-29.627-2.844-50.486-8.296-63.76c-3.793-8.768-7.822-12.326-18.252-16.118v-2.37h60.207V399.598z"/>
		<path fill="#B3C8C5" d="M546.023,493.463v-35.316c0-25.839-4.98-43.145-15.17-52.148c-4.032-3.793-8.064-5.22-16.832-6.402v-2.37
			h70.162v2.37c-14.222,1.422-20.624,5.923-26.548,18.249c-6.163,13.513-8.299,26.548-8.299,50.251v94.814L424.182,420.457v67.552
			c0,24.652,2.61,39.353,8.773,49.543c6.163,10.19,12.565,13.983,26.548,15.17v2.37H384.6v-2.37
			c14.462-2.37,22.755-8.059,28.684-18.963c5.689-10.904,7.585-23.464,7.585-50.012l0.235-42.906
			c0-22.516-3.318-29.632-16.592-36.503c-6.876-3.558-10.669-4.506-20.15-4.741v-2.37h77.278L546.023,493.463z"/>
		<path fill="#B3C8C5" d="M657.185,475.214v39.343c0,33.664,1.896,36.743,22.281,38.165v2.37H588.68v-2.37
			c19.911-1.422,22.047-4.741,22.047-38.165v-76.799c0-33.419-2.136-36.738-22.281-38.16v-2.37h91.021v2.37
			c-20.385,1.422-22.281,4.741-22.281,38.16v35.56c1.422-1.427,2.605-2.375,3.318-3.323c1.662-1.657,6.163-6.637,13.274-14.691
			c5.454-6.402,9.956-11.617,13.509-15.884c8.299-10.43,13.039-21.094,13.039-30.575c0-4.741-1.183-7.35-4.506-9.247v-2.37h64.473
			v2.37c-12.56,2.61-17.775,4.506-27.731,9.955c-6.872,3.793-13.987,8.059-20.624,13.034c-11.378,8.299-15.405,11.617-24.652,21.099
			l33.898,50.96l13.274,19.442c14.457,21.328,18.489,26.069,27.496,31.997c6.637,4.501,10.43,5.689,19.911,6.637v2.37h-75.377
			L657.185,475.214z"/>
		<path fill="#B3C8C5" d="M877.862,514.557c0,33.424,1.896,36.743,22.042,38.165v2.37h-90.787v-2.37
			c20.15-1.422,22.047-4.741,22.047-38.165v-23.464L792.05,426.38c-11.612-19.432-17.775-24.652-31.049-26.783v-2.37h91.73v2.37
			c-8.294,0.948-12.56,4.975-12.56,11.612c0,5.454,2.61,12.565,8.533,22.286l27.261,44.797l7.82-13.039
			c10.904-17.536,16.118-32.237,16.118-45.745c0-11.612-3.079-17.541-10.195-19.911v-2.37h60.212v2.37
			c-13.513,3.793-20.625,9.007-34.612,26.074c-10.664,12.8-18.723,23.943-25.6,35.321l-11.847,19.911V514.557z"/>
	</g>
	<g>
		<path fill="#B3C8C5" d="M147.174,763.799c21.297,8.643,26.779,10.122,36.268,10.122c11.597,0,17.923-4.426,22.351-15.817h2.109
			c-2.53,15.182-6.115,24.252-12.652,32.052c-7.169,8.648-17.08,13.287-28.256,13.287c-9.067,0-17.712-2.952-26.147-8.856
			c-6.748-4.639-10.543-8.648-17.923-18.135c-15.393-19.608-17.712-21.93-22.562-21.93c-4.217,0-7.38,3.374-7.38,8.013
			c0.211,0.422,0.211,0.422,0.211,0.843l0.211,2.317c0.211,0.844,0.211,1.687,0.211,2.53c0,6.748-4.217,11.178-10.543,11.178
			c-5.272,0-9.489-4.004-9.489-9.278c0-9.7,13.495-17.713,29.099-17.713c3.163,0,5.061,0.213,10.543,0.844
			c-35.425-9.7-57.355-36.899-57.144-70.638c0-40.486,33.949-73.173,76.543-73.173c42.383,0,76.543,32.686,76.543,73.173
			c0,40.695-34.16,72.955-76.754,72.955c-4.217,0-6.537-0.209-12.23-1.052C128.407,756.629,135.787,759.16,147.174,763.799z
			 M156.452,629.053c-4.006-10.33-13.073-16.656-23.827-16.656s-19.821,6.326-23.827,16.656
			c-4.639,12.235-7.169,30.365-7.169,53.564c0,23.191,2.53,41.33,7.169,53.556c4.006,10.548,13.073,16.661,23.827,16.661
			s19.61-6.113,23.827-16.661c4.639-11.809,7.169-30.152,7.169-53.556C163.621,659.418,161.091,641.288,156.452,629.053z"/>
		<path fill="#B3C8C5" d="M373.427,614.505c-12.021,2.53-18.982,10.543-22.773,26.991c-3.165,13.074-4.43,26.991-4.43,47.234v16.235
			c0,17.504-2.317,26.573-8.648,34.373c-3.582,4.009-8.008,7.591-13.071,10.122c-8.434,4.217-18.556,6.113-32.262,6.113
			c-20.032,0-36.057-3.791-47.233-11.595c-11.597-7.804-14.971-17.082-14.971-39.643v-55.882c0-29.73-1.687-32.682-19.61-33.947
			v-2.109h79.284v2.109c-16.658,1.265-18.134,4.217-18.134,33.947v49.134c0,22.352,1.054,30.578,4.85,37.112
			c4.85,8.648,16.236,13.917,29.521,13.917c16.447,0,28.466-6.539,33.74-18.135c2.948-6.961,3.791-12.022,3.791-25.517v-19.4
			c0-26.356-2.53-44.912-7.378-56.721c-3.374-7.8-6.961-10.965-16.236-14.339v-2.109h53.561V614.505z"/>
		<path fill="#B3C8C5" d="M456.711,752.834h-80.762v-2.109c17.712-1.265,19.612-4.217,19.612-33.952v-68.321
			c0-29.73-1.9-32.682-19.821-33.947v-2.109h80.971v2.109c-18.134,1.265-19.821,4.217-19.821,33.947v68.321
			c0,29.734,1.687,32.687,19.821,33.952V752.834z"/>
		<path fill="#B3C8C5" d="M522.495,716.773c0,29.734,1.687,32.687,19.821,33.952v2.109h-80.762v-2.109
			c17.712-1.265,19.612-4.217,19.612-33.952v-68.321c0-29.73-1.9-32.682-19.821-33.947v-2.109h59.041
			c31.842,0,47.442,2.53,60.937,9.7c12.443,6.539,19.612,16.661,19.612,27.413c0,15.813-13.282,26.36-36.69,29.734
			c15.604,2.739,21.508,7.591,30.573,25.091l11.808,22.987c9.704,18.974,13.708,22.348,27.834,23.404v2.109h-61.78l-2.322-5.269
			c-6.748-16.026-9.695-22.565-16.026-36.06c-3.161-6.956-6.322-12.652-9.065-17.291c-4.43-6.961-11.387-11.178-18.978-11.178
			h-3.796V716.773z M528.399,680.504c19.821,0,28.255-9.909,28.255-32.895c0-10.752-2.109-19.187-6.539-24.669
			c-4.426-5.904-10.33-8.226-21.717-8.226h-5.904v65.79H528.399z"/>
		<path fill="#B3C8C5" d="M689.494,681.774v34.999c0,29.947,1.687,32.687,19.821,33.952v2.109h-80.758v-2.109
			c17.712-1.265,19.608-4.217,19.608-33.952v-68.321c0-29.73-1.896-32.682-19.821-33.947v-2.109h80.971v2.109
			c-18.134,1.265-19.821,4.217-19.821,33.947v31.634c1.265-1.27,2.322-2.113,2.952-2.956c1.474-1.474,5.482-5.904,11.808-13.069
			c4.848-5.696,8.856-10.335,12.021-14.13c7.378-9.278,11.595-18.765,11.595-27.2c0-4.217-1.056-6.539-4.004-8.226v-2.109h57.354
			v2.109c-11.178,2.322-15.817,4.009-24.673,8.856c-6.117,3.374-12.439,7.169-18.343,11.596
			c-10.121,7.383-13.708,10.335-21.93,18.769l30.151,45.334l11.808,17.295c12.865,18.974,16.447,23.191,24.46,28.465
			c5.904,4.004,9.278,5.061,17.712,5.904v2.109h-67.054L689.494,681.774z"/>
		<path fill="#B3C8C5" d="M885.8,716.773c0,29.734,1.687,32.687,19.612,33.952v2.109h-80.758v-2.109
			c17.921-1.265,19.608-4.217,19.608-33.952V695.9l-34.79-57.569c-10.334-17.287-15.817-21.93-27.625-23.826v-2.109h81.606v2.109
			c-7.382,0.844-11.178,4.426-11.178,10.33c0,4.852,2.317,11.178,7.591,19.826l24.247,39.852l6.961-11.6
			c9.7-15.6,14.339-28.678,14.339-40.695c0-10.33-2.743-15.604-9.065-17.713v-2.109h53.555v2.109
			c-12.017,3.374-18.343,8.013-30.782,23.195c-9.491,11.387-16.66,21.3-22.773,31.421L885.8,686.835V716.773z"/>
	</g>
	<rect x="56.08" y="168.09" fill="#B3C8C5" width="893.822" height="3.223"/>
	<rect x="56.08" y="367.674" fill="#B3C8C5" width="893.822" height="3.223"/>
	<rect x="56.08" y="582.563" fill="#B3C8C5" width="893.822" height="3.223"/>
</g>
<g opacity="0.2">
	<g>
		<path fill="#B3C8C5" d="M1550.08,140.002c13.682-0.996,15.131-3.151,15.131-26.719V59.518c0-23.396-1.449-25.72-15.131-26.715
			v-1.659h56.017c20.282,0,35.091,5.31,46.359,16.594c9.98,10.124,15.292,23.728,15.292,39.163
			c0,31.529-23.502,54.761-55.374,54.761h-62.295V140.002z M1596.761,117.602c0,19.082,1.771,22.233,11.912,22.233
			c18.351,0,25.272-14.932,25.272-53.598c0-21.737-2.415-34.349-8.048-43.313c-4.507-7.134-11.59-9.957-24.789-9.957h-4.346V117.602
			z"/>
		<path fill="#B3C8C5" d="M1716.035,84.078c8.853-0.664,14.97-2.984,20.121-7.466c5.312-4.315,7.727-8.961,8.853-16.926h1.61v51.111
			h-1.61c-1.771-7.633-4.99-13.275-10.141-18.09c-5.151-4.646-9.497-6.138-18.833-6.802v39.163c0,11.448,2.093,14.767,9.497,14.767
			c20.443,0,41.854-19.082,50.705-45.301h1.61l-7.242,47.128h-101.091v-1.659c13.521-0.996,14.97-3.151,14.97-26.719V59.518
			c0-23.396-1.449-25.72-15.131-26.715v-1.659h94.972l6.439,38.003h-1.61c-3.541-8.465-5.473-11.619-10.624-17.922
			c-3.379-4.15-6.761-7.302-10.302-9.792c-7.727-5.642-16.902-8.465-27.526-8.465h-4.668V84.078z"/>
		<path fill="#B3C8C5" d="M1876.201,141.662h-98.195v-1.659c13.521-0.996,14.972-3.151,14.972-26.719V59.518
			c0-23.396-1.45-25.72-15.131-26.715v-1.659h61.812v1.659c-13.843,0.996-15.131,3.319-15.131,26.715v61.403
			c0,15.595,2.094,18.914,11.752,18.914c8.852,0,15.934-2.819,23.823-9.457c4.826-4.147,9.174-8.961,12.715-14.271
			c5.473-7.965,7.564-12.444,11.427-24.064h1.613L1876.201,141.662z"/>
		<path fill="#B3C8C5" d="M1945.574,141.662h-61.653v-1.659c13.521-0.996,14.972-3.319,14.972-26.719V59.518
			c0-23.396-1.45-25.72-15.131-26.715v-1.659h61.812v1.659c-13.844,0.996-15.131,3.319-15.131,26.715v53.766
			c0,23.4,1.288,25.723,15.131,26.719V141.662z"/>
		<path fill="#B3C8C5" d="M2043.603,74.456h-1.613c-2.735-9.461-4.344-12.947-9.014-20.912c-3.057-5.143-6.598-9.789-10.302-13.604
			c-5.47-5.646-11.908-8.797-18.188-8.797c-15.453,0-23.664,19.082-23.664,55.757c0,34.848,9.984,54.761,27.528,54.761
			c13.843,0,28.49-19.085,35.091-45.636h1.61l-1.447,47.128h-1.613c-0.159-2.156-1.288-3.151-3.538-3.151
			c-0.969,0-2.094,0-3.382,0.332l-4.185,0.828l-3.863,0.5l-4.507,0.828c-4.023,0.664-10.946,1.328-15.131,1.328
			c-33.963,0-60.362-25.056-60.362-57.748c0-31.861,25.755-57.249,58.108-57.249c6.117,0,13.521,1.163,21.733,3.155
			c4.826,1.16,6.598,1.492,8.689,1.492c2.257,0,3.219-0.828,3.863-3.319h1.613L2043.603,74.456z"/>
		<path fill="#B3C8C5" d="M2108.147,141.662h-61.65v-1.659c13.521-0.996,14.968-3.319,14.968-26.719V59.518
			c0-23.396-1.447-25.72-15.131-26.715v-1.659h61.812v1.659c-13.844,0.996-15.131,3.319-15.131,26.715v53.766
			c0,23.4,1.288,25.723,15.131,26.719V141.662z"/>
		<path fill="#B3C8C5" d="M2168.191,143.817c-32.519,0-58.434-25.552-58.434-57.413s25.915-57.584,58.434-57.584
			c32.353,0,58.43,25.723,58.43,57.584S2200.544,143.817,2168.191,143.817z M2186.378,44.251c-3.06-8.13-9.98-13.108-18.188-13.108
			c-8.211,0-15.135,4.978-18.191,13.108c-3.541,9.628-5.473,23.896-5.473,42.153c0,18.25,1.932,32.525,5.473,42.146
			c3.057,8.301,9.98,13.111,18.191,13.111c8.208,0,14.969-4.811,18.188-13.111c3.542-9.293,5.473-23.728,5.473-42.146
			C2191.852,68.147,2189.92,53.879,2186.378,44.251z"/>
		<path fill="#B3C8C5" d="M2352.008,32.803c-9.174,1.991-14.484,8.297-17.385,21.241c-2.413,10.289-3.379,21.241-3.379,37.171
			v12.776c0,13.775-1.772,20.912-6.598,27.051c-2.738,3.155-6.12,5.974-9.984,7.965c-6.439,3.319-14.165,4.811-24.627,4.811
			c-15.294,0-27.527-2.984-36.057-9.125c-8.855-6.142-11.43-13.443-11.43-31.197V59.518c0-23.396-1.288-25.72-14.969-26.715v-1.659
			h60.525v1.659c-12.718,0.996-13.843,3.319-13.843,26.715v38.667c0,17.59,0.806,24.064,3.701,29.206
			c3.704,6.805,12.396,10.952,22.536,10.952c12.559,0,21.733-5.146,25.755-14.271c2.257-5.478,2.901-9.46,2.901-20.081V88.724
			c0-20.741-1.932-35.344-5.635-44.637c-2.576-6.138-5.311-8.629-12.393-11.284v-1.659h40.883V32.803z"/>
		<path fill="#B3C8C5" d="M2432.652,71.634c-8.211-25.391-22.695-40.49-38.633-40.49c-10.143,0-17.063,6.306-17.063,15.931
			c0,4.814,2.094,9.625,5.632,12.444c3.704,2.99,11.431,7.137,19.801,10.456l15.131,5.81c18.029,7.134,26.399,17.09,26.399,31.526
			c0,20.745-17.222,36.508-39.921,36.508c-8.048,0-20.926-1.824-34.448-4.811c-4.829-0.996-6.28-1.328-7.886-1.328
			c-3.382,0-4.67,0.996-5.476,3.983h-1.606l-1.45-51.111h1.61c2.897,10.289,4.667,14.104,11.431,24.395
			c4.344,6.47,9.014,12.276,14.003,17.09c6.761,6.638,13.844,9.625,22.698,9.625c10.946,0,18.188-6.638,18.188-16.759
			c0-9.628-6.598-16.266-22.695-22.736l-15.778-6.306c-20.604-8.13-29.293-17.422-29.293-30.866
			c0-20.409,18.188-36.176,41.852-36.176c5.632,0,11.264,0.828,19.316,2.655l5.151,1.328c3.379,0.664,5.632,0.996,7.242,0.996
			c2.416,0,3.379-0.831,3.863-3.651h1.61l1.932,41.486H2432.652z"/>
	</g>
	<g>
		<path fill="#B3C8C5" d="M1713.963,197.934c-12.084,2.585-19.081,10.766-22.897,27.557c-3.181,13.349-4.453,27.557-4.453,48.226
			v16.576c0,17.869-2.332,27.128-8.691,35.093c-3.605,4.09-8.056,7.75-13.146,10.333c-8.479,4.306-18.656,6.244-32.437,6.244
			c-20.141,0-36.253-3.875-47.49-11.84c-11.66-7.967-15.053-17.439-15.053-40.475v-57.052c0-30.356-1.695-33.368-19.716-34.662
			v-2.152h79.715v2.152c-16.748,1.293-18.232,4.306-18.232,34.662v50.163c0,22.82,1.06,31.216,4.876,37.89
			c4.875,8.828,16.325,14.21,29.681,14.21c16.537,0,28.621-6.674,33.922-18.514c2.968-7.105,3.816-12.273,3.816-26.051v-19.805
			c0-26.912-2.544-45.857-7.419-57.913c-3.393-7.965-6.997-11.195-16.325-14.641v-2.152h53.85V197.934z"/>
		<path fill="#B3C8C5" d="M1858.13,283.19v-32.078c0-23.466-4.453-39.183-13.569-47.364c-3.605-3.444-7.209-4.735-15.053-5.813
			v-2.152h62.755v2.152c-12.721,1.293-18.446,5.384-23.746,16.577c-5.512,12.273-7.419,24.113-7.419,45.641v86.116l-111.942-129.388
			v61.356c0,22.39,2.332,35.738,7.844,44.996c5.512,9.257,11.237,12.701,23.746,13.778v2.152h-66.996v-2.152
			c12.933-2.154,20.353-7.32,25.653-17.224c5.09-9.904,6.784-21.313,6.784-45.426l0.212-38.968c0-20.452-2.968-26.91-14.841-33.155
			c-6.147-3.228-9.541-4.09-18.021-4.306v-2.152h69.115L1858.13,283.19z"/>
		<path fill="#B3C8C5" d="M1977.494,339.164h-81.2v-2.152c17.809-1.293,19.718-4.306,19.718-34.662v-69.754
			c0-30.356-1.909-33.368-19.93-34.662v-2.152h81.412v2.152c-18.232,1.293-19.928,4.306-19.928,34.662v69.754
			c0,30.356,1.697,33.368,19.928,34.662V339.164z"/>
		<path fill="#B3C8C5" d="M2071.204,350.359c21.413,8.826,26.925,10.333,36.466,10.333c11.66,0,18.021-4.52,22.472-16.146h2.121
			c-2.544,15.501-6.149,24.758-12.721,32.723c-7.209,8.828-17.172,13.563-28.409,13.563c-9.116,0-17.809-3.013-26.29-9.041
			c-6.784-4.737-10.6-8.828-18.02-18.516c-15.477-20.021-17.809-22.389-22.686-22.389c-4.239,0-7.419,3.444-7.419,8.181
			c0.212,0.429,0.212,0.429,0.212,0.861l0.212,2.368c0.211,0.862,0.211,1.723,0.211,2.585c0,6.889-4.239,11.409-10.6,11.409
			c-5.3,0-9.541-4.09-9.541-9.472c0-9.904,13.569-18.084,29.258-18.084c3.179,0,5.088,0.216,10.6,0.862
			c-35.618-9.904-57.668-37.676-57.455-72.122c0-41.335,34.134-74.705,76.961-74.705c42.613,0,76.959,33.37,76.959,74.705
			c0,41.551-34.346,74.49-77.171,74.49c-4.24,0-6.572-0.216-12.297-1.076C2052.335,343.039,2059.755,345.622,2071.204,350.359z
			 M2080.532,212.79c-4.028-10.55-13.144-17.008-23.957-17.008c-10.812,0-19.93,6.458-23.958,17.008
			c-4.663,12.487-7.209,31.001-7.209,54.683s2.546,42.196,7.209,54.683c4.028,10.766,13.146,17.008,23.958,17.008
			c10.812,0,19.716-6.243,23.957-17.008c4.663-12.056,7.209-30.785,7.209-54.683C2087.741,243.791,2085.195,225.277,2080.532,212.79
			z"/>
		<path fill="#B3C8C5" d="M2298.692,197.934c-12.086,2.585-19.081,10.766-22.898,27.557c-3.181,13.349-4.451,27.557-4.451,48.226
			v16.576c0,17.869-2.332,27.128-8.693,35.093c-3.605,4.09-8.056,7.75-13.144,10.333c-8.481,4.306-18.656,6.244-32.437,6.244
			c-20.142,0-36.255-3.875-47.492-11.84c-11.66-7.967-15.053-17.439-15.053-40.475v-57.052c0-30.356-1.695-33.368-19.716-34.662
			v-2.152h79.717v2.152c-16.749,1.293-18.234,4.306-18.234,34.662v50.163c0,22.82,1.06,31.216,4.875,37.89
			c4.877,8.828,16.327,14.21,29.683,14.21c16.537,0,28.62-6.674,33.92-18.514c2.969-7.105,3.818-12.273,3.818-26.051v-19.805
			c0-26.912-2.544-45.857-7.423-57.913c-3.39-7.965-6.995-11.195-16.325-14.641v-2.152h53.853V197.934z"/>
		<path fill="#B3C8C5" d="M2362.509,264.459c11.658-0.861,19.714-3.875,26.5-9.688c6.995-5.598,10.176-11.625,11.658-21.959h2.123
			v66.309h-2.123c-2.332-9.904-6.57-17.222-13.356-23.466c-6.783-6.029-12.507-7.965-24.802-8.828v50.81
			c0,14.855,2.756,19.16,12.507,19.16c26.925,0,55.124-24.758,66.782-58.775h2.123l-9.542,61.143h-133.143v-2.152
			c17.811-1.293,19.718-4.09,19.718-34.662v-69.754c0-30.356-1.907-33.368-19.93-34.662v-2.152h125.086l8.481,49.301h-2.119
			c-4.667-10.98-7.21-15.07-13.993-23.251c-4.451-5.382-8.905-9.472-13.569-12.702c-10.176-7.319-22.262-10.98-36.255-10.98h-6.146
			V264.459z"/>
	</g>
	<g>
		<path fill="#B3C8C5" d="M1618.82,475.449c13.511-0.714,23.229-4.267,30.578-10.904c5.926-5.449,9.481-12.086,11.852-23.464h2.37
			v72.059h-2.37c-3.081-11.378-6.637-17.545-14.696-24.417c-8.533-7.585-15.881-10.43-27.733-10.664v36.738
			c0,19.671,1.422,26.308,6.4,31.289c4.978,4.98,9.481,6.398,22.518,6.637v2.37h-97.421v-2.37
			c19.911-1.422,22.044-4.501,22.044-38.165v-76.799c0-33.419-2.133-36.738-22.281-38.16v-2.37h137.006l9.955,58.785h-2.37
			c-5.452-14.222-8.296-19.437-14.696-27.736c-4.03-4.975-8.77-9.716-14.222-13.743c-12.563-9.481-26.785-14.701-40.059-14.701
			h-6.874V475.449z"/>
		<path fill="#B3C8C5" d="M1878.844,399.598c-13.513,2.844-21.333,11.852-25.6,30.34c-3.556,14.696-4.978,30.34-4.978,53.096v18.249
			c0,19.676-2.607,29.871-9.718,38.639c-4.03,4.506-9.007,8.533-14.696,11.378c-9.481,4.741-20.859,6.872-36.266,6.872
			c-22.518,0-40.533-4.262-53.096-13.034c-13.037-8.773-16.829-19.202-16.829-44.563v-62.817c0-33.419-1.896-36.738-22.044-38.16
			v-2.37h89.125v2.37c-18.726,1.422-20.385,4.741-20.385,38.16v55.232c0,25.126,1.185,34.372,5.452,41.718
			c5.452,9.721,18.252,15.644,33.185,15.644c18.489,0,32-7.351,37.926-20.385c3.318-7.825,4.267-13.513,4.267-28.684v-21.807
			c0-29.627-2.844-50.486-8.296-63.76c-3.792-8.768-7.822-12.326-18.252-16.118v-2.37h60.207V399.598z"/>
		<path fill="#B3C8C5" d="M2040.023,493.463v-35.316c0-25.839-4.98-43.145-15.17-52.148c-4.032-3.793-8.064-5.22-16.832-6.402v-2.37
			h70.162v2.37c-14.222,1.422-20.625,5.923-26.548,18.249c-6.163,13.513-8.299,26.548-8.299,50.251v94.814l-125.154-142.455v67.552
			c0,24.652,2.61,39.353,8.773,49.543c6.163,10.19,12.565,13.983,26.548,15.17v2.37H1878.6v-2.37
			c14.462-2.37,22.755-8.059,28.684-18.963c5.689-10.904,7.585-23.464,7.585-50.012l0.235-42.906
			c0-22.516-3.318-29.632-16.592-36.503c-6.876-3.558-10.669-4.506-20.15-4.741v-2.37h77.278L2040.023,493.463z"/>
		<path fill="#B3C8C5" d="M2151.185,475.214v39.343c0,33.664,1.896,36.743,22.281,38.165v2.37h-90.787v-2.37
			c19.911-1.422,22.047-4.741,22.047-38.165v-76.799c0-33.419-2.136-36.738-22.281-38.16v-2.37h91.021v2.37
			c-20.385,1.422-22.281,4.741-22.281,38.16v35.56c1.422-1.427,2.605-2.375,3.318-3.323c1.662-1.657,6.163-6.637,13.274-14.691
			c5.454-6.402,9.956-11.617,13.509-15.884c8.299-10.43,13.039-21.094,13.039-30.575c0-4.741-1.183-7.35-4.506-9.247v-2.37h64.473
			v2.37c-12.56,2.61-17.775,4.506-27.73,9.955c-6.872,3.793-13.988,8.059-20.625,13.034c-11.378,8.299-15.405,11.617-24.652,21.099
			l33.898,50.96l13.274,19.442c14.457,21.328,18.489,26.069,27.496,31.997c6.637,4.501,10.429,5.689,19.911,6.637v2.37h-75.377
			L2151.185,475.214z"/>
		<path fill="#B3C8C5" d="M2371.862,514.557c0,33.424,1.896,36.743,22.042,38.165v2.37h-90.787v-2.37
			c20.15-1.422,22.047-4.741,22.047-38.165v-23.464l-39.113-64.713c-11.612-19.432-17.775-24.652-31.049-26.783v-2.37h91.73v2.37
			c-8.294,0.948-12.56,4.975-12.56,11.612c0,5.454,2.61,12.565,8.533,22.286l27.261,44.797l7.82-13.039
			c10.904-17.536,16.118-32.237,16.118-45.745c0-11.612-3.079-17.541-10.195-19.911v-2.37h60.212v2.37
			c-13.513,3.793-20.625,9.007-34.612,26.074c-10.664,12.8-18.723,23.943-25.6,35.321l-11.847,19.911V514.557z"/>
	</g>
	<g>
		<path fill="#B3C8C5" d="M1641.174,763.799c21.297,8.643,26.779,10.122,36.268,10.122c11.598,0,17.923-4.426,22.351-15.817h2.109
			c-2.53,15.182-6.115,24.252-12.652,32.052c-7.169,8.648-17.08,13.287-28.255,13.287c-9.067,0-17.713-2.952-26.147-8.856
			c-6.748-4.639-10.543-8.648-17.923-18.135c-15.393-19.608-17.713-21.93-22.562-21.93c-4.217,0-7.38,3.374-7.38,8.013
			c0.211,0.422,0.211,0.422,0.211,0.843l0.211,2.317c0.211,0.844,0.211,1.687,0.211,2.53c0,6.748-4.217,11.178-10.543,11.178
			c-5.271,0-9.489-4.004-9.489-9.278c0-9.7,13.495-17.713,29.099-17.713c3.163,0,5.061,0.213,10.543,0.844
			c-35.425-9.7-57.354-36.899-57.144-70.638c0-40.486,33.949-73.173,76.543-73.173c42.383,0,76.543,32.686,76.543,73.173
			c0,40.695-34.16,72.955-76.754,72.955c-4.217,0-6.537-0.209-12.23-1.052C1622.407,756.629,1629.787,759.16,1641.174,763.799z
			 M1650.452,629.053c-4.006-10.33-13.073-16.656-23.827-16.656c-10.754,0-19.821,6.326-23.827,16.656
			c-4.639,12.235-7.169,30.365-7.169,53.564c0,23.191,2.53,41.33,7.169,53.556c4.006,10.548,13.073,16.661,23.827,16.661
			c10.754,0,19.61-6.113,23.827-16.661c4.639-11.809,7.169-30.152,7.169-53.556C1657.621,659.418,1655.091,641.288,1650.452,629.053
			z"/>
		<path fill="#B3C8C5" d="M1867.427,614.505c-12.021,2.53-18.982,10.543-22.773,26.991c-3.165,13.074-4.43,26.991-4.43,47.234
			v16.235c0,17.504-2.317,26.573-8.648,34.373c-3.583,4.009-8.008,7.591-13.071,10.122c-8.434,4.217-18.556,6.113-32.262,6.113
			c-20.032,0-36.057-3.791-47.233-11.595c-11.597-7.804-14.971-17.082-14.971-39.643v-55.882c0-29.73-1.687-32.682-19.61-33.947
			v-2.109h79.284v2.109c-16.658,1.265-18.134,4.217-18.134,33.947v49.134c0,22.352,1.054,30.578,4.85,37.112
			c4.85,8.648,16.236,13.917,29.521,13.917c16.447,0,28.466-6.539,33.74-18.135c2.948-6.961,3.791-12.022,3.791-25.517v-19.4
			c0-26.356-2.53-44.912-7.378-56.721c-3.374-7.8-6.961-10.965-16.236-14.339v-2.109h53.561V614.505z"/>
		<path fill="#B3C8C5" d="M1950.711,752.834h-80.762v-2.109c17.712-1.265,19.612-4.217,19.612-33.952v-68.321
			c0-29.73-1.9-32.682-19.821-33.947v-2.109h80.971v2.109c-18.134,1.265-19.821,4.217-19.821,33.947v68.321
			c0,29.734,1.687,32.687,19.821,33.952V752.834z"/>
		<path fill="#B3C8C5" d="M2016.495,716.773c0,29.734,1.687,32.687,19.821,33.952v2.109h-80.762v-2.109
			c17.712-1.265,19.612-4.217,19.612-33.952v-68.321c0-29.73-1.9-32.682-19.821-33.947v-2.109h59.042
			c31.842,0,47.442,2.53,60.937,9.7c12.443,6.539,19.612,16.661,19.612,27.413c0,15.813-13.282,26.36-36.69,29.734
			c15.604,2.739,21.508,7.591,30.573,25.091l11.808,22.987c9.704,18.974,13.708,22.348,27.834,23.404v2.109h-61.781l-2.322-5.269
			c-6.748-16.026-9.695-22.565-16.026-36.06c-3.161-6.956-6.321-12.652-9.065-17.291c-4.43-6.961-11.387-11.178-18.978-11.178
			h-3.795V716.773z M2022.399,680.504c19.821,0,28.256-9.909,28.256-32.895c0-10.752-2.109-19.187-6.539-24.669
			c-4.426-5.904-10.33-8.226-21.717-8.226h-5.904v65.79H2022.399z"/>
		<path fill="#B3C8C5" d="M2183.494,681.774v34.999c0,29.947,1.687,32.687,19.821,33.952v2.109h-80.758v-2.109
			c17.712-1.265,19.608-4.217,19.608-33.952v-68.321c0-29.73-1.896-32.682-19.821-33.947v-2.109h80.971v2.109
			c-18.134,1.265-19.821,4.217-19.821,33.947v31.634c1.265-1.27,2.322-2.113,2.952-2.956c1.474-1.474,5.482-5.904,11.808-13.069
			c4.848-5.696,8.856-10.335,12.021-14.13c7.378-9.278,11.595-18.765,11.595-27.2c0-4.217-1.057-6.539-4.004-8.226v-2.109h57.354
			v2.109c-11.178,2.322-15.817,4.009-24.673,8.856c-6.117,3.374-12.439,7.169-18.343,11.596
			c-10.121,7.383-13.708,10.335-21.93,18.769l30.151,45.334l11.808,17.295c12.865,18.974,16.447,23.191,24.46,28.465
			c5.904,4.004,9.278,5.061,17.712,5.904v2.109h-67.054L2183.494,681.774z"/>
		<path fill="#B3C8C5" d="M2379.8,716.773c0,29.734,1.687,32.687,19.612,33.952v2.109h-80.758v-2.109
			c17.921-1.265,19.608-4.217,19.608-33.952V695.9l-34.79-57.569c-10.334-17.287-15.817-21.93-27.625-23.826v-2.109h81.606v2.109
			c-7.382,0.844-11.178,4.426-11.178,10.33c0,4.852,2.317,11.178,7.591,19.826l24.247,39.852l6.961-11.6
			c9.7-15.6,14.339-28.678,14.339-40.695c0-10.33-2.743-15.604-9.065-17.713v-2.109h53.555v2.109
			c-12.017,3.374-18.343,8.013-30.781,23.195c-9.491,11.387-16.66,21.3-22.773,31.421l-10.547,17.713V716.773z"/>
	</g>
	<rect x="1550.08" y="168.09" fill="#B3C8C5" width="893.822" height="3.223"/>
	<rect x="1550.08" y="367.674" fill="#B3C8C5" width="893.822" height="3.223"/>
	<rect x="1550.08" y="582.563" fill="#B3C8C5" width="893.822" height="3.223"/>
</g>
</svg>
